{
  "project_info": {
    "project_number": "686353703095",
    "project_id": "quizapp-429b2",
    "storage_bucket": "quizapp-429b2.appspot.com"
  },
  "client": [
    {
      "client_info": {
        "mobilesdk_app_id": "1:686353703095:android:183f5b43ed713dc972ed32",
        "android_client_info": {
          "package_name": "com.group.mvvm_quizapp"
        }
      },
      "oauth_client": [
        {
          "client_id": "686353703095-9ldkh7u7t0ca5n53p8asksvl0uvgrrfj.apps.googleusercontent.com",
          "client_type": 1,
          "android_info": {
            "package_name": "com.group.mvvm_quizapp",
            "certificate_hash": "34e0a9a237d8970eb2883ddb452d57a1ed2bee36"
          }
        },
        {
          "client_id": "686353703095-630rinov2pfql7uej17he3k0rf67fjo9.apps.googleusercontent.com",
          "client_type": 3
        }
      ],
      "api_key": [
        {
          "current_key": "AIzaSyDvaUmHTnMfHgnp7XCSSPJMkgzB1Q0QTHw"
        }
      ],
      "services": {
        "appinvite_service": {
          "other_platform_oauth_client": [
            {
              "client_id": "686353703095-630rinov2pfql7uej17he3k0rf67fjo9.apps.googleusercontent.com",
              "client_type": 3
            }
          ]
        }
      }
    }
  ],
  "configuration_version": "1"
}